<?xml version="1.0" encoding="UTF-8" standalone="no"?>
<?xml-stylesheet href="../../styles/forest.css" type="text/css"?>
<!DOCTYPE svg PUBLIC "-//W3C//DTD SVG 1.1//EN"
 "http://www.w3.org/Graphics/SVG/1.1/DTD/svg11.dtd">
<!-- Generated by graphviz version 2.40.1 (20161225.0304)
 -->
<!-- Title: %3 Pages: 1 -->
<svg width="564pt" height="180pt"
 viewBox="0.00 0.00 563.95 180.00" xmlns="http://www.w3.org/2000/svg" xmlns:xlink="http://www.w3.org/1999/xlink">
<g id="graph0" class="graph" transform="scale(1 1) rotate(0) translate(4 176)">
<title>%3</title>
<polygon fill="#ffffff" stroke="transparent" points="-4,4 -4,-176 559.947,-176 559.947,4 -4,4"/>
<g id="clust1" class="cluster">
<title>cluster_master</title>
<polygon fill="none" stroke="#000000" points="8,-90 8,-164 547.947,-164 547.947,-90 8,-90"/>
<text text-anchor="middle" x="277.9735" y="-148.8" font-family="Times,serif" font-size="14.00" fill="#000000">master</text>
</g>
<g id="clust2" class="cluster">
<title>cluster_detached</title>
<polygon fill="none" stroke="#000000" points="185.1636,-8 185.1636,-82 326.5488,-82 326.5488,-8 185.1636,-8"/>
<text text-anchor="middle" x="255.8562" y="-66.8" font-family="Times,serif" font-size="14.00" fill="#000000">detached HEAD</text>
</g>
<!-- A -->
<g id="node1" class="node">
<title>A</title>
<ellipse fill="none" stroke="#000000" cx="86.5818" cy="-116" rx="70.6637" ry="18"/>
<text text-anchor="middle" x="86.5818" y="-111.8" font-family="Helvetica,sans-Serif" font-size="14.00" fill="#000000">Added hello file</text>
</g>
<!-- B -->
<g id="node2" class="node">
<title>B</title>
<ellipse fill="none" stroke="#000000" cx="255.8562" cy="-116" rx="42.1216" ry="18"/>
<text text-anchor="middle" x="255.8562" y="-111.8" font-family="Helvetica,sans-Serif" font-size="14.00" fill="#000000">Say bye</text>
</g>
<!-- A&#45;&gt;B -->
<g id="edge1" class="edge">
<title>A&#45;&gt;B</title>
<path fill="none" stroke="#000000" d="M157.3886,-116C172.698,-116 188.628,-116 203.1012,-116"/>
<polygon fill="#000000" stroke="#000000" points="203.3528,-119.5001 213.3528,-116 203.3528,-112.5001 203.3528,-119.5001"/>
</g>
<!-- D -->
<g id="node4" class="node HEAD">
<title>D</title>
<ellipse fill="none" stroke="#000000" cx="255.8562" cy="-34" rx="62.8858" ry="18"/>
<text text-anchor="middle" x="255.8562" y="-29.8" font-family="Helvetica,sans-Serif" font-size="14.00" fill="#000000">Git is a fellow</text>
</g>
<!-- A&#45;&gt;D -->
<g id="edge3" class="edge">
<title>A&#45;&gt;D</title>
<path fill="none" stroke="#000000" d="M119.6214,-99.9949C146.7957,-86.8311 185.4452,-68.1086 214.6408,-53.9656"/>
<polygon fill="#000000" stroke="#000000" points="216.2874,-57.0571 223.7612,-49.5475 213.2356,-50.7573 216.2874,-57.0571"/>
</g>
<!-- C -->
<g id="node3" class="node">
<title>C</title>
<ellipse fill="none" stroke="#000000" cx="447.2479" cy="-116" rx="92.8986" ry="18"/>
<text text-anchor="middle" x="447.2479" y="-111.8" font-family="Helvetica,sans-Serif" font-size="14.00" fill="#000000">Not needed anymore</text>
</g>
<!-- B&#45;&gt;C -->
<g id="edge2" class="edge">
<title>B&#45;&gt;C</title>
<path fill="none" stroke="#000000" d="M298.3322,-116C312.1034,-116 328.0306,-116 344.2392,-116"/>
<polygon fill="#000000" stroke="#000000" points="344.351,-119.5001 354.3509,-116 344.3509,-112.5001 344.351,-119.5001"/>
</g>
</g>
</svg>
