<?xml version="1.0" encoding="UTF-8" standalone="no"?>
<?xml-stylesheet href="../../styles/forest.css" type="text/css"?>
<!DOCTYPE svg PUBLIC "-//W3C//DTD SVG 1.1//EN"
 "http://www.w3.org/Graphics/SVG/1.1/DTD/svg11.dtd">
<!-- Generated by graphviz version 2.40.1 (20161225.0304)
 -->
<!-- Title: %3 Pages: 1 -->
<svg width="491pt" height="44pt"
 viewBox="0.00 0.00 490.68 44.00" xmlns="http://www.w3.org/2000/svg" xmlns:xlink="http://www.w3.org/1999/xlink">
<g id="graph0" class="graph" transform="scale(1 1) rotate(0) translate(4 40)">
<title>%3</title>
<polygon fill="#ffffff" stroke="transparent" points="-4,4 -4,-40 486.6833,-40 486.6833,4 -4,4"/>
<!-- A -->
<g id="node1" class="node HEAD">
<title>A</title>
<ellipse fill="none" stroke="#000000" cx="70.5818" cy="-18" rx="70.6637" ry="18"/>
<text text-anchor="middle" x="70.5818" y="-13.8" font-family="Helvetica,sans-Serif" font-size="14.00" fill="#000000">Added hello file</text>
</g>
<!-- B -->
<g id="node2" class="node">
<title>B</title>
<ellipse fill="none" stroke="#000000" cx="219.2243" cy="-18" rx="42.1216" ry="18"/>
<text text-anchor="middle" x="219.2243" y="-13.8" font-family="Helvetica,sans-Serif" font-size="14.00" fill="#000000">Say bye</text>
</g>
<!-- A&#45;&gt;B -->
<g id="edge1" class="edge">
<title>A&#45;&gt;B</title>
<path fill="none" stroke="#000000" d="M141.4204,-18C149.9377,-18 158.5161,-18 166.7068,-18"/>
<polygon fill="#000000" stroke="#000000" points="166.8407,-21.5001 176.8407,-18 166.8407,-14.5001 166.8407,-21.5001"/>
</g>
<!-- C -->
<g id="node3" class="node">
<title>C</title>
<ellipse fill="none" stroke="#000000" cx="389.9842" cy="-18" rx="92.8986" ry="18"/>
<text text-anchor="middle" x="389.9842" y="-13.8" font-family="Helvetica,sans-Serif" font-size="14.00" fill="#000000">Not needed anymore</text>
</g>
<!-- B&#45;&gt;C -->
<g id="edge2" class="edge">
<title>B&#45;&gt;C</title>
<path fill="none" stroke="#000000" d="M261.4346,-18C269.3998,-18 278.0451,-18 286.9587,-18"/>
<polygon fill="#000000" stroke="#000000" points="287.1146,-21.5001 297.1146,-18 287.1146,-14.5001 287.1146,-21.5001"/>
</g>
</g>
</svg>
